Question 2.1, the Gaussian Function, f(1) is equal to 0.607 

Question 2.3, the approximately integrated Gaussian Function, f(xb,n), when xb=3 and n=10 is equal to: 
1.595
The precision is better than 1.0e-03 for n >= 4280 
Question 2.3, the approximately integrated Gaussian Function, f(xb,n), when xb=3 and n=10 is equal to: 
1.595
The precision is better than 1.0e-03 for n >= 4280 
